{
  "schemaVersion": 1,
  "id": "maxenchantx",
  "version": "${version}",

  "name": "Max Enchant X",
  "description": "This mod sets the maximum level for most enchantments to 10.",
  "authors": [
    "the_zyga", "ZephaniahNoah"
  ],
  "contact": {
    "homepage": "https://www.curseforge.com/minecraft/mc-mods/max-enchant-x",
    "sources": "https://gitlab.com/ZephaniahNoah/max-enchant-x"
  },

  "license": "MIT",
  "icon": "assets/maxenchantx/maxX.png",

  "environment": "*",
  "entrypoints": {
    "main": [
      "com.zyga.maxenchantx.MaxEnchantX"
    ]
  },
  "mixins": [
    "maxenchantx.mixins.json"
  ],

  "depends": {
    "fabricloader": ">=0.14.6",
    "fabric": "*",
    "minecraft": ">=1.19",
    "java": ">=17"
  },
  "suggests": {
    "another-mod": "*"
  }
}
